<svg xmlns="http://www.w3.org/2000/svg" width="86" height="86" fill="none" viewBox="0 0 86 86">
    <circle cx="43" cy="43" r="39" fill="#000" stroke="#fff" stroke-width="8"/>
    <path fill="#fff" d="M44.602 47.202c0 2.04-.005 4.077.005 6.119 0 .223-.06.284-.284.279-1.737-.01-3.468-.01-5.205 0-.239 0-.315-.056-.315-.305.01-4.047.005-8.09.005-12.137 0-.406.046-.355-.37-.36-.737 0-1.473-.005-2.21.005-.177 0-.228-.056-.228-.233.005-1.285.005-2.575 0-3.86 0-.178.05-.233.228-.228.772.01 1.54-.005 2.311.01.208.005.274-.051.274-.27-.01-1.081 0-2.168-.005-3.25-.005-.898.132-1.767.584-2.559.488-.863 1.219-1.457 2.123-1.843.762-.325 1.564-.477 2.387-.523 1.63-.092 3.265-.015 4.895-.046.183-.005.228.061.228.234a525.941 525.941 0 0 0 0 4.011c0 .204-.076.234-.253.234-.94-.005-1.88-.005-2.819-.005-.782 0-1.346.564-1.346 1.335 0 .798.01 1.59-.005 2.387-.005.229.071.285.29.285 1.285-.01 2.574 0 3.86-.01.212 0 .283.06.258.274-.076.655-.142 1.31-.213 1.965-.066.63-.178 1.254-.28 1.879-.03.177-.086.218-.248.218a363.178 363.178 0 0 0-3.301 0c-.432 0-.37-.056-.37.381.004 2 .004 4.007.004 6.013z"/>
</svg>
