<svg xmlns="http://www.w3.org/2000/svg" width="33" height="32" fill="none" viewBox="0 0 33 32">
    <path fill="#FCF4DF" d="M0 16c9.6-1.068 14.934-6.405 16.003-16 1.068 9.597 6.402 14.934 16.002 16-9.6 1.066-14.934 6.401-16.002 16C14.934 22.403 9.6 17.068 0 16z"/>
</svg>
