<svg xmlns="http://www.w3.org/2000/svg" width="23" height="31" fill="none" viewBox="0 0 23 31">
    <path stroke="#fff" stroke-linecap="round" stroke-linejoin="round" stroke-width="3" d="M1.5 1.5h20v28l-10-5.613-10 5.613v-28z"/>
</svg>
