<svg xmlns="http://www.w3.org/2000/svg" width="120" height="168" fill="none" viewBox="0 0 120 168">
    <mask id="a" fill="#fff">
        <path fill-rule="evenodd" d="M41.017 0C21.177 0 5.095 16.083 5.095 35.922v2.607A23.845 23.845 0 0 0 0 53.297v15.948c0 16.063 10.544 29.664 25.089 34.259a4.785 4.785 0 0 0-2.162 4.005v29.552a4.79 4.79 0 0 0 4.79 4.79h1.11a11.938 11.938 0 0 0 8.625 3.669H54.85v2.06c-1.13.201-2.19.799-2.894 1.736-.904 1.204-.99 2.664-.37 3.839a3.921 3.921 0 0 0 3.263 5.418v4.966a4.459 4.459 0 1 0 8.919 0v-4.966a3.92 3.92 0 0 0 0-7.81v-5.243h7.426v4.846a4.01 4.01 0 0 0 0 7.996v5.019a4.618 4.618 0 0 0 9.236 0v-5.019a4.01 4.01 0 0 0 3.387-5.542c.642-1.201.55-2.696-.387-3.93-.73-.961-1.83-1.574-3-1.78v-1.59h14.6c6.613 0 11.974-5.361 11.974-11.974v-22.521c0-3.188-1.246-6.085-3.277-8.231 9.826-8.77 16.012-21.534 16.012-35.742V35.922C119.739 16.082 103.656 0 83.817 0h-42.8z" clip-rule="evenodd"/>
    </mask>
    <path fill="#000" fill-rule="evenodd" d="M41.017 0C21.177 0 5.095 16.083 5.095 35.922v2.607A23.845 23.845 0 0 0 0 53.297v15.948c0 16.063 10.544 29.664 25.089 34.259a4.785 4.785 0 0 0-2.162 4.005v29.552a4.79 4.79 0 0 0 4.79 4.79h1.11a11.938 11.938 0 0 0 8.625 3.669H54.85v2.06c-1.13.201-2.19.799-2.894 1.736-.904 1.204-.99 2.664-.37 3.839a3.921 3.921 0 0 0 3.263 5.418v4.966a4.459 4.459 0 1 0 8.919 0v-4.966a3.92 3.92 0 0 0 0-7.81v-5.243h7.426v4.846a4.01 4.01 0 0 0 0 7.996v5.019a4.618 4.618 0 0 0 9.236 0v-5.019a4.01 4.01 0 0 0 3.387-5.542c.642-1.201.55-2.696-.387-3.93-.73-.961-1.83-1.574-3-1.78v-1.59h14.6c6.613 0 11.974-5.361 11.974-11.974v-22.521c0-3.188-1.246-6.085-3.277-8.231 9.826-8.77 16.012-21.534 16.012-35.742V35.922C119.739 16.082 103.656 0 83.817 0h-42.8z" clip-rule="evenodd"/>
    <path fill="#000" d="M5.095 38.529l2.826 2.217.766-.977v-1.24H5.095zm19.994 64.976l1.973 3.001 6.314-4.15-7.205-2.276-1.082 3.425zm3.738 38.347l2.587-2.492-1.06-1.1h-1.527v3.592zm26.022 3.669h3.593v-3.592h-3.593v3.592zm0 2.06l.628 3.537 2.965-.526v-3.011h-3.593zm-2.893 1.736l-2.873-2.156 2.873 2.156zm-.37 3.839l3.314 1.388.655-1.565-.791-1.5-3.177 1.677zm3.264 5.418h3.592v-3.284l-3.271-.294-.322 3.578zm8.918 0l-.318-3.578-3.275.291v3.287h3.593zm0-7.81h-3.593v3.288l3.275.29.318-3.578zm0-5.243v-3.592h-3.593v3.592h3.593zm7.426 0h3.592v-3.592h-3.592v3.592zm0 4.846l.28 3.581 3.312-.259v-3.322h-3.592zm0 7.996h3.592v-3.322l-3.312-.26-.28 3.582zm9.236 0l-.279-3.582-3.314.258v3.324h3.593zm3.387-5.542l-3.168-1.693-.804 1.503.657 1.574 3.315-1.384zm-.387-3.93l2.86-2.173-2.86 2.173zm-3-1.78h-3.593v3.017l2.971.521.622-3.538zm0-1.59v-3.592h-3.593v3.592h3.593zm23.297-42.726l-2.393-2.679-2.759 2.463 2.543 2.686 2.609-2.47zM8.687 35.922c0-17.855 14.475-32.33 32.33-32.33v-7.184c-21.823 0-39.514 17.69-39.514 39.514h7.184zm0 2.607v-2.607H1.503v2.607h7.184zM3.592 53.297c0-4.74 1.616-9.093 4.33-12.552L2.268 36.31a27.437 27.437 0 0 0-5.861 16.987h7.184zm0 15.948V53.298h-7.184v15.948h7.184zm22.579 30.834C13.077 95.943 3.592 83.697 3.592 69.246h-7.184c0 17.675 11.603 32.631 27.599 37.684l2.164-6.85zm.348 7.43c0-.415.209-.784.543-1.004l-3.947-6.003a8.379 8.379 0 0 0-3.78 7.007h7.184zm0 29.552V107.51h-7.184v29.552h7.184zm1.198 1.198a1.197 1.197 0 0 1-1.198-1.198h-7.184a8.382 8.382 0 0 0 8.382 8.382v-7.184zm1.11 0h-1.11v7.184h1.11v-7.184zm8.625 3.669a8.347 8.347 0 0 1-6.038-2.569l-5.175 4.984a15.534 15.534 0 0 0 11.213 4.769v-7.184zm17.398 0H37.451v7.184H54.85v-7.184zm-3.593 3.592v2.06h7.185v-2.06h-7.185zm2.965-1.477c-1.933.343-3.835 1.378-5.14 3.117l5.747 4.312c.102-.136.32-.297.648-.355l-1.255-7.074zm-5.14 3.117c-1.714 2.284-1.96 5.234-.672 7.672l6.354-3.354a.155.155 0 0 1 .015.076c-.001.01-.003.01.001-.001a.356.356 0 0 1 .05-.081l-5.747-4.312zm-.809 4.608a7.499 7.499 0 0 0-.581 2.9h7.184c0-.051.01-.091.024-.125l-6.627-2.775zm-.581 2.9a7.514 7.514 0 0 0 6.836 7.483l.643-7.156a.329.329 0 0 1-.295-.327h-7.184zm3.565 3.905v4.966h7.185v-4.966h-7.185zm0 4.966a8.05 8.05 0 0 0 8.052 8.051v-7.184a.867.867 0 0 1-.867-.867h-7.185zm8.052 8.051a8.05 8.05 0 0 0 8.05-8.051h-7.184a.867.867 0 0 1-.866.867v7.184zm8.05-8.051v-4.966h-7.184v4.966h7.185zm-3.274-1.388a7.513 7.513 0 0 0 6.844-7.483h-7.184c0 .17-.131.313-.295.327l.635 7.156zm6.844-7.483a7.513 7.513 0 0 0-6.844-7.483l-.635 7.156a.33.33 0 0 1 .295.327h7.184zm-3.57-3.905v-5.243h-7.184v5.243h7.185zm3.835-8.835h-7.426v7.184h7.426v-7.184zm3.592 8.438v-4.846h-7.184v4.846h7.184zm-3.693 3.998c0-.218.17-.4.381-.417l-.56-7.162a7.603 7.603 0 0 0-7.005 7.579h7.184zm.381.416a.417.417 0 0 1-.38-.416h-7.185a7.603 7.603 0 0 0 7.005 7.579l.56-7.163zm3.312 8.601v-5.019h-7.184v5.019h7.184zm1.026 1.025a1.025 1.025 0 0 1-1.026-1.025h-7.184a8.21 8.21 0 0 0 8.21 8.21v-7.185zm1.025-1.025c0 .566-.459 1.025-1.025 1.025v7.185a8.21 8.21 0 0 0 8.21-8.21h-7.185zm0-5.019v5.019h7.185v-5.019h-7.185zm3.696-3.998c0 .218-.17.4-.382.416l.557 7.163a7.603 7.603 0 0 0 7.01-7.579h-7.185zm-.03-.16c.018.044.03.096.03.16h7.184a7.593 7.593 0 0 0-.585-2.928l-6.63 2.768zm.067-3.141c.039.052.056.088.062.105.007.016.006.021.005.015a.106.106 0 0 1 .012-.056l6.336 3.386c1.326-2.481 1.062-5.483-.695-7.796l-5.72 4.346zm-.761-.415c.377.067.636.251.76.415l5.721-4.346c-1.335-1.758-3.276-2.8-5.24-3.145l-1.242 7.076zm-2.972-5.128v1.59h7.185v-1.59h-7.185zm18.193-3.592h-14.6v7.184h14.6v-7.184zm8.382-8.382a8.382 8.382 0 0 1-8.382 8.382v7.184c8.597 0 15.566-6.969 15.566-15.566h-7.184zm0-22.521v22.521h7.184v-22.521h-7.184zm-2.294-5.761a8.341 8.341 0 0 1 2.294 5.761h7.184c0-4.143-1.623-7.914-4.261-10.7l-5.217 4.939zm15.029-38.212c0 13.142-5.718 24.944-14.813 33.063l4.785 5.359c10.557-9.424 17.212-23.148 17.212-38.422h-7.184zm0-31.131v31.131h7.184V35.922h-7.184zm-32.33-32.33c17.855 0 32.33 14.475 32.33 32.33h7.184c0-21.823-17.691-39.514-39.514-39.514v7.184zm-2.546 0h2.546v-7.184h-2.546v7.184zm-15.033 0H81.27v-7.184H66.238v7.184zm-17.58 0h17.58v-7.184h-17.58v7.184zm-7.641 0h7.641v-7.184h-7.641v7.184z" mask="url(#a)"/>
    <rect width="5.915" height="39.042" x="56.318" y="125.408" fill="#E4E3D4" stroke="#000" stroke-width="2.356" rx="2.945"/>
    <rect width="5.915" height="39.042" x="72.882" y="125.408" fill="#E4E3D4" stroke="#000" stroke-width="2.356" rx="2.945"/>
    <rect width="4.738" height="9.47" x="64.099" y="153.919" fill="#fff" stroke="#000" stroke-width="1.178" rx="2.356" transform="rotate(123.418 64.099 153.919)"/>
    <rect width="4.738" height="9.47" x="64.012" y="152.026" fill="#fff" stroke="#000" stroke-width="1.178" rx="2.356" transform="rotate(90 64.012 152.026)"/>
    <rect width="4.738" height="9.47" x="80.576" y="152.026" fill="#fff" stroke="#000" stroke-width="1.178" rx="2.356" transform="rotate(90 80.576 152.026)"/>
    <rect width="4.738" height="9.47" x="78.442" y="148.686" fill="#fff" stroke="#000" stroke-width="1.178" rx="2.356" transform="rotate(61.355 78.442 148.686)"/>
    <path fill="#FF006B" stroke="#000" stroke-width="1.178" d="M6.038 53.24c0-12.742 10.328-23.071 23.07-23.071h27.211c12.742 0 23.07 10.329 23.07 23.07v26.029c0 12.74-10.328 23.07-23.07 23.07H40.94c-19.276 0-34.901-15.626-34.901-34.901V53.238z"/>
    <mask id="b" fill="#fff">
        <path fill-rule="evenodd" d="M45.67 1.183c-19.601 0-35.492 15.89-35.492 35.493v18.93c0 9.278 3.56 17.725 9.39 24.049 6.148 19 23.986 32.739 45.033 32.739h4.733c26.136 0 47.324-21.188 47.324-47.324V36.676c0-19.602-15.891-35.493-35.493-35.493H45.67z" clip-rule="evenodd"/>
    </mask>
    <path fill="#FF006B" fill-rule="evenodd" d="M45.67 1.183c-19.601 0-35.492 15.89-35.492 35.493v18.93c0 9.278 3.56 17.725 9.39 24.049 6.148 19 23.986 32.739 45.033 32.739h4.733c26.136 0 47.324-21.188 47.324-47.324V36.676c0-19.602-15.891-35.493-35.493-35.493H45.67z" clip-rule="evenodd"/>
    <path fill="#000" d="M19.567 79.655l3.377-1.093-.24-.74-.527-.573-2.61 2.406zM78.89 1.183l-.009 3.55h.01v-3.55zM13.727 36.676c0-17.642 14.302-31.944 31.944-31.944v-7.098c-21.563 0-39.042 17.48-39.042 39.042h7.098zm0 18.93v-18.93H6.63v18.93h7.098zm8.45 21.643a31.817 31.817 0 0 1-8.45-21.644H6.63c0 10.205 3.92 19.502 10.329 26.455l5.219-4.81zm42.424 31.596c-19.463 0-35.968-12.705-41.657-30.283l-6.754 2.186c6.609 20.42 25.78 35.195 48.411 35.195v-7.098zm4.733 0H64.6v7.098h4.733v-7.098zm43.774-43.775c0 24.176-19.598 43.775-43.774 43.775v7.098c28.096 0 50.873-22.776 50.873-50.873h-7.099zm0-28.394V65.07h7.099V36.676h-7.099zM81.165 4.732c17.642 0 31.943 14.302 31.943 31.944h7.099c0-21.562-17.48-39.042-39.042-39.042v7.098zm-2.275 0h2.275v-7.098H78.89v7.098zm-.093 0h.084l.018-7.098h-.102v7.098zm-33.126 0h33.127v-7.098H45.67v7.098z" mask="url(#b)"/>
    <mask id="c" fill="#fff">
        <path fill-rule="evenodd" d="M45.67 1.183c-19.601 0-35.492 15.89-35.492 35.493v18.93c0 9.278 3.56 17.725 9.39 24.049 6.148 19 23.986 32.739 45.033 32.739h4.733c26.136 0 47.324-21.188 47.324-47.324V36.676c0-19.602-15.891-35.493-35.493-35.493H45.67z" clip-rule="evenodd"/>
    </mask>
    <path fill="#FF006B" fill-rule="evenodd" d="M45.67 1.183c-19.601 0-35.492 15.89-35.492 35.493v18.93c0 9.278 3.56 17.725 9.39 24.049 6.148 19 23.986 32.739 45.033 32.739h4.733c26.136 0 47.324-21.188 47.324-47.324V36.676c0-19.602-15.891-35.493-35.493-35.493H45.67z" clip-rule="evenodd"/>
    <path fill="#000" d="M19.567 79.655l3.377-1.093-.24-.74-.527-.573-2.61 2.406zM78.89 1.183l-.009 3.55h.01v-3.55zM13.727 36.676c0-17.642 14.302-31.944 31.944-31.944v-7.098c-21.563 0-39.042 17.48-39.042 39.042h7.098zm0 18.93v-18.93H6.63v18.93h7.098zm8.45 21.643a31.817 31.817 0 0 1-8.45-21.644H6.63c0 10.205 3.92 19.502 10.329 26.455l5.219-4.81zm42.424 31.596c-19.463 0-35.968-12.705-41.657-30.283l-6.754 2.186c6.609 20.42 25.78 35.195 48.411 35.195v-7.098zm4.733 0H64.6v7.098h4.733v-7.098zm43.774-43.775c0 24.176-19.598 43.775-43.774 43.775v7.098c28.096 0 50.873-22.776 50.873-50.873h-7.099zm0-28.394V65.07h7.099V36.676h-7.099zM81.165 4.732c17.642 0 31.943 14.302 31.943 31.944h7.099c0-21.562-17.48-39.042-39.042-39.042v7.098zm-2.275 0h2.275v-7.098H78.89v7.098zm-.093 0h.084l.018-7.098h-.102v7.098zm-33.126 0h33.127v-7.098H45.67v7.098z" mask="url(#c)"/>
    <rect width="72.774" height="44.379" x="30.58" y="98.486" fill="#FF006B" stroke="#000" stroke-width="2.945" rx="10.306"/>
    <path stroke="#fff" stroke-linecap="round" stroke-width="11.778" d="M68.15 16.678c7.295-.592 23.78.828 31.352 11.24"/>
    <rect width="64.154" height="34.291" x="29.474" y="103.479" fill="#FFF8ED" stroke="#000" stroke-width="1.101" rx="3.854"/>
</svg>
